<svg width="29" height="25" viewBox="0 0 29 25" fill="none" xmlns="http://www.w3.org/2000/svg">
<path d="M9.54545 19.7761L2.38636 11.9403L0 14.5522L9.54545 25L30 2.61194L27.6136 0L9.54545 19.7761Z" fill="#0BCAD4"/>
</svg>
