<svg width="17" height="17" viewBox="0 0 17 17" fill="none" xmlns="http://www.w3.org/2000/svg">
<path d="M8.5 8.5C10.8481 8.5 12.75 6.59813 12.75 4.25C12.75 1.90187 10.8481 0 8.5 0C6.15187 0 4.25 1.90187 4.25 4.25C4.25 6.59813 6.15187 8.5 8.5 8.5ZM8.5 10.625C5.66312 10.625 0 12.0487 0 14.875V17H17V14.875C17 12.0487 11.3369 10.625 8.5 10.625Z" fill="#0BCAD4"/>
</svg>
